{
  "buyer": {
    "name": "Joseph",
    "surname": "Bravo",
    "email": "prueba@gmail.com",
    "document": "1017217125",
    "documentType": "CC",
    "mobile": "3203509960"
  },
  "payment": {
    "reference": "TEST_20190826_155639",
    "description": "Pago del SOAT",
    "amount": {
      "currency": "COP",
      "total": 600000
    }
  },
  "expiration": "expiration ",
  "ipAddress": "201.184.3.213",
  "returnUrl": "http://127.0.0.1:8000/confirm",
  "userAgent": "Mozilla/5.0 (Macintosh; Intel Mac OS X 10_14_5) AppleWebKit/537.36 (KHTML, like Gecko) Chrome/75.0.3770.100 Safari/537.36",
  "paymentMethod": "",
  "skipResult": "True",
  
  "auth": {
    "login": "825e1b4e038b3c380aefc33181bed268",
    "tranKey": "css83lpw0bBc5jGw",
    "nonce": "12345678965",
    "seed": "XX"
   }
  }